{
  "name": "mongo",
  "connector": "mongodb",
  "url": "",
  "host": "ds149056.mlab.com",
  "port": 49056,
  "user": "owen",
  "password": "Or112369",
  "database": "gameavrse-com",
  "useNewUrlParser": true
}
